Sampling Estimate, Precision, and Simulation
…
---
# Where does the variability level off?
<img src="04_simulation_estimation_x_files/figure-html/dist_sim_stop-1.png" style="display: block; margin: auto;" />

---
# Many Ways to Visualize

<img src="04_simulation_estimation_x_files/figure-html/bin2d-1.png" style="display: block; margin: auto;" />

---
# Where does the variability level off?

```
# A tibble: 99 x 2
   sampSize mean_sim_sd
      <int>       <dbl>
 1       96        1.10
 2      100        1.11
 3       92        1.12
 4       95        1.12
 5       97        1.13
 6       89        1.13
 7       93        1.13
 8       98        1.13
 9       99        1.14
10       91        1.17
# … with 89 more rows
```
…
