Estimation, Confidence, and Simulation
…
Where does the variability level off?

# A tibble: 81 x 2
   sampSize mean_sim_sd
      <int>       <dbl>
1        73   0.7390990
2        23   0.7571298
3        46   0.9268731
4        51   0.9368759
5        63   0.9555057
6        74   0.9589096
7        85   0.9897979
8        81   1.0230904
9        79   1.0692790
10       82   1.0734958
# ... with 71 more rows
…
Where does the variability level off?

# A tibble: 81 x 2
   sampSize mean_sim_sd
      <int>       <dbl>
1        73   0.7390990
2        23   0.7571298
3        46   0.9268731
4        51   0.9368759
5        63   0.9555057
6        74   0.9589096
7        85   0.9897979
8        81   1.0230904
9        79   1.0692790
10       82   1.0734958
# ... with 71 more rows
…
