24_mmi.utf8.md
…
51.95

13.08

keeley_full_brm - keeley_null_brm

-60.43

13.60

Are these really different?

The Futility of Model Selection in a Bayesian World

# A tibble: 55 x 3
   Model                                  WAIC    SE
   <chr>                                 <dbl> <dbl>
 1 k_abiotic_brm - k_cover_brm           -16.2 12.2 
 2 k_abiotic_brm - k_firesev_brm         -13.6 11.6 
 3 k_abiotic_brm - keeley_full_brm        35.7 11.3 
 4 k_abiotic_brm - keeley_soil_fire_brm   30.8 10.5 
 5 k_abiotic_brm - keeley_plant_fire_brm  13.6 12.4 
 6 k_abiotic_brm - keeley_soil_plant_brm  26.7  9.70
 7 k_abiotic_brm - keeley_soil_brm        11.0  6.28
 8 k_abiotic_brm - keeley_fire_brm        15.2 11.7 
 9 k_abiotic_brm - keeley_plant_brm      -13.7 11.9 
10 k_abiotic_brm - keeley_null_brm       -24.7 10.2 
# ... with 45 more rows
…
