iteration.utf8.md
…
Make a list of tibbles list.files(), map(), and read_csv() as well

You might need to use paste0() or stringr::str_c to make a full file path with the output of list.files()

One Line to load them all

files <- list.files("./data/gapminder/") %>%
  str_c("./data/gapminder/", .)

gapminder_df <- map_df(files, read_csv)

gapminder_df

# A tibble: 1,704 x 6
   country     continent  year lifeExp      pop gdpPercap
   <chr>       <chr>     <int>   <dbl>    <int>     <dbl>
 1 Afghanistan Asia       1952    28.8  8425333      779.
 2 Afghanistan Asia       1957    30.3  9240934      821.
 3 Afghanistan Asia       1962    32.0 10267083      853.
 4 Afghanistan Asia       1967    34.0 11537966      836.
 5 Afghanistan Asia       1972    36.1 13079460      740.
 6 Afghanistan Asia       1977    38.4 14880372      786.
 7 Afghanistan Asia       1982    39.9 12881816      978.
 8 Afghanistan Asia       1987    40.8 13867957      852.
 9 Afghanistan Asia       1992    41.7 16317921      649.
10 Afghanistan Asia       1997    41.8 22227415      635.
# ... with 1,694 more rows
…
Just fit for each tibble!

fits <- map(gapminder_list, ~lm(lifeExp ~ pop, data = .x))

Shockingly simple, no?

And those coefficients? Map again to the rescue!

library(broom)
slopes <- map_df(fits, tidy, .id = "Country") %>%
  filter(term == "pop")

slopes

# A tibble: 142 x 6
   Country term     estimate     std.error statistic  p.value
   <chr>   <chr>       <dbl>         <dbl>     <dbl>    <dbl>
 1 1       pop   0.000000577 0.000000134        4.30 1.57e- 3
 2 2       pop   0.00000729  0.000000717       10.2  1.37e- 6
 3 3       pop   0.00000118  0.0000000759      15.5  2.55e- 8
 4 4       pop   0.00000128  0.000000248        5.14 4.35e- 4
 5 5       pop   0.000000553 0.0000000128      43.1  1.08e-12
 6 6       pop   0.00000105  0.0000000505      20.8  1.49e- 9
 7 7       pop   0.00000974  0.000000729       13.3  1.07e- 7
 8 8       pop   0.0000386   0.00000402         9.60 2.31e- 6
 9 9       pop   0.000000259 0.00000000658     39.4  2.66e-12
10 10      pop   0.00000692  0.000000696        9.95 1.67e- 6
# ... with 132 more rows
…
Let’s nest a listcolumn!

gapminder_df %>%
  
  group_by(country) %>%
  
  nest()

# A tibble: 142 x 2
   country     data             
   <chr>       <list>           
 1 Afghanistan <tibble [12 × 5]>
 2 Albania     <tibble [12 × 5]>
 3 Algeria     <tibble [12 × 5]>
 4 Angola      <tibble [12 × 5]>
 5 Argentina   <tibble [12 × 5]>
 6 Australia   <tibble [12 × 5]>
 7 Austria     <tibble [12 × 5]>
 8 Bahrain     <tibble [12 × 5]>
 9 Bangladesh  <tibble [12 × 5]>
10 Belgium     <tibble [12 × 5]>
# ... with 132 more rows
Map + Listcolumns = Love

gapminder_mods <- gapminder_df %>%
  
  group_by(country) %>%
  
  nest() %>%
  
  mutate(mods = map(data, ~lm(lifeExp ~ pop, data = .)))

What did we do?

gapminder_mods

# A tibble: 142 x 3
   country     data              mods    
   <chr>       <list>            <list>  
 1 Afghanistan <tibble [12 × 5]> <S3: lm>
 2 Albania     <tibble [12 × 5]> <S3: lm>
 3 Algeria     <tibble [12 × 5]> <S3: lm>
 4 Angola      <tibble [12 × 5]> <S3: lm>
 5 Argentina   <tibble [12 × 5]> <S3: lm>
 6 Australia   <tibble [12 × 5]> <S3: lm>
 7 Austria     <tibble [12 × 5]> <S3: lm>
 8 Bahrain     <tibble [12 × 5]> <S3: lm>
 9 Bangladesh  <tibble [12 × 5]> <S3: lm>
10 Belgium     <tibble [12 × 5]> <S3: lm>
# ... with 132 more rows
…
gapminder_mods <- gapminder_mods %>%
  
  mutate(coefs = map(mods, tidy))

And…getting it back?

gapminder_coefs <- gapminder_mods %>%
  
  unnest(coefs) %>%
  
  filter(term == "pop")

And…getting it back?

# A tibble: 142 x 6
   country     term     estimate     std.error statistic  p.value
   <chr>       <chr>       <dbl>         <dbl>     <dbl>    <dbl>
 1 Afghanistan pop   0.000000577 0.000000134        4.30 1.57e- 3
 2 Albania     pop   0.00000729  0.000000717       10.2  1.37e- 6
 3 Algeria     pop   0.00000118  0.0000000759      15.5  2.55e- 8
 4 Angola      pop   0.00000128  0.000000248        5.14 4.35e- 4
 5 Argentina   pop   0.000000553 0.0000000128      43.1  1.08e-12
 6 Australia   pop   0.00000105  0.0000000505      20.8  1.49e- 9
 7 Austria     pop   0.00000974  0.000000729       13.3  1.07e- 7
 8 Bahrain     pop   0.0000386   0.00000402         9.60 2.31e- 6
 9 Bangladesh  pop   0.000000259 0.00000000658     39.4  2.66e-12
10 Belgium     pop   0.00000692  0.000000696        9.95 1.67e- 6
# ... with 132 more rows
…
