Power Analysis
…
```r
puffer_sims <- tibble(n = 2:10) |>
  
  #for each sample size
  group_by(n) |>
  
  #simulate some data
  summarize(  map_dfr(1:1000, ~make_puffers(n), .id = "sim"))

puffer_sims
```

```
# A tibble: 216,000 × 4
# Groups:   n [9]
       n sim   resemblance predators
   <int> <chr>       <int>     <dbl>
 1     2 1               1     -2.63
 2     2 1               2     12.1 
 3     2 1               3      5.40
 4     2 1               4     11.6 
 5     2 1               1      9.68
 6     2 1               2     16.9 
 7     2 1               3      5.90
 8     2 1               4      5.63
 9     2 2               1     -5.86
10     2 2               2     13.0 
# … with 215,990 more rows
```
…
