Simulation for Estimation of Parameter Uncertainty
…
Neat - this gives us a much reduced piece of data to work with. But - what about the arranging?

sampSim_summary <- sampSim_summary %>%
  # ungroup the resulting data
  ungroup() %>%
  # Sort it by SD
  arrange(pop_mean_sd)

sampSim_summary

## # A tibble: 48 x 2
##    samp_size pop_mean_sd
##        <int>       <dbl>
##  1        24       0.295
##  2        17       0.310
##  3        38       0.340
##  4        50       0.359
##  5        36       0.395
##  6        33       0.400
##  7        32       0.418
##  8        42       0.421
##  9        12       0.429
## 10        45       0.439
## # ... with 38 more rows
…
This is nice, but, man, thats a lot of nested statements. The other way we could do this is with dplyr. Again, we can start with a blank data frame with 100 simulations, waiting to take flight.

median_sims <- data.frame(sims=1:100)

Now, we can take these, and for each simulation, draw a median from a sample of our samp vector.

median_sims <- median_sims %>%
  rowwise() %>%
  mutate(median_sim = median(sample(samp, size=10, replace = TRUE))) %>%
  ungroup()

median_sims

## # A tibble: 100 x 2
##     sims median_sim
##    <int>      <dbl>
##  1     1      10.0 
##  2     2      10.4 
##  3     3      10.9 
##  4     4      10.7 
##  5     5       9.63
##  6     6      10.0 
##  7     7      10.8 
##  8     8       9.99
##  9     9       9.37
## 10    10      11.2 
## # ... with 90 more rows
…
