Power for Linear Regression
…
library(tidyr)

#setup that tibble!
pow_frame <- crossing(nsim = 100,
                      slope = 1,
                      intercept = 0,
                      resid_sd = 1:10,
                      n = 4:10,
                      xmin = 0, 
                      xmax = 10)

pow_frame

## # A tibble: 70 x 7
##     nsim slope intercept resid_sd     n  xmin  xmax
##    <dbl> <dbl>     <dbl>    <int> <int> <dbl> <dbl>
##  1   100     1         0        1     4     0    10
##  2   100     1         0        1     5     0    10
##  3   100     1         0        1     6     0    10
##  4   100     1         0        1     7     0    10
##  5   100     1         0        1     8     0    10
##  6   100     1         0        1     9     0    10
##  7   100     1         0        1    10     0    10
##  8   100     1         0        2     4     0    10
##  9   100     1         0        2     5     0    10
## 10   100     1         0        2     6     0    10
## # ... with 60 more rows
…
