Power Analysis
…
Hey! It works! I think!

If you can write this function, though, you have grokked the core of what we need to do in order to run a power analysis. Everything else is just iteration and trying out different values. You could also have returned more output from this - the slope AND intercept AND their p-values, whole coefficient tables, whatever! But, for a simple power analysis, this is all we need.

3. Iteration

OK, we’re going to try a lot of sample sizes. Let’s say we have 1000 simulations for every sample size from 3 to 20. This is just a dplyr workflow where we create a tibble or data frame with a column for sample size, group by sample size, and them use summarize and map_dbl to get a new column of p-values.

p_tibble <- tibble(n = 3:20) |>
  group_by(n) |>
  summarize(p = map_dbl(1:1000, ~get_p(n)))

p_tibble

# A tibble: 18,000 × 2
# Groups:   n [18]
       n       p
   <int>   <dbl>
 1     3 0.711  
 2     3 0.365  
 3     3 0.393  
 4     3 0.200  
 5     3 0.338  
 6     3 0.128  
 7     3 0.122  
 8     3 0.00123
 9     3 0.518  
10     3 0.421  
# … with 17,990 more rows
…
