Power Analysis
…
Next, we can cross this with our sample sizes.

power_sims <- crossing(world,
                       n = 3:20)

And finally, we want to expand this more, as we are going to need replicate simulations at each level of sample size.

power_sims <- crossing(power_sims,
                       sims = 1:100)

power_sims

# A tibble: 1,800 × 7
   slope intercept resid_sd min_x max_x     n  sims
   <dbl>     <dbl>    <dbl> <dbl> <dbl> <int> <int>
 1     3         0        5     0    10     3     1
 2     3         0        5     0    10     3     2
 3     3         0        5     0    10     3     3
 4     3         0        5     0    10     3     4
 5     3         0        5     0    10     3     5
 6     3         0        5     0    10     3     6
 7     3         0        5     0    10     3     7
 8     3         0        5     0    10     3     8
 9     3         0        5     0    10     3     9
10     3         0        5     0    10     3    10
# ℹ 1,790 more rows

Great! We are ready to go!

3. Creating data

OK, now that we have some parameters together, we need to create data. We’re going to do that with a reframe as we make our data even bigger!

power_sims <- power_sims |>
  group_by(n, sims) |>
  reframe(x = runif(n, min_x, max_x),
          y = rnorm(n, intercept + slope * x, resid_sd))

power_sims

# A tibble: 20,700 × 4
       n  sims       x      y
   <int> <int>   <dbl>  <dbl>
 1     3     1 1.19     4.86 
 2     3     1 8.40    34.3  
 3     3     1 6.60    11.6  
 4     3     2 9.76    25.6  
 5     3     2 6.02     9.68 
 6     3     2 0.00695  0.702
 7     3     3 8.02    20.8  
 8     3     3 5.04     6.60 
 9     3     3 0.00201 -8.74 
10     3     4 7.91    28.2  
# ℹ 20,690 more rows

Fantastic! Note, we’ve lost the other parameter values, but that’s fine. If we were doing a power analysis on any of them, we could have grouped by and retained them.

4. Making p-values

We now want to nest each data set into it’s own little piece to work on. We can do that with tidyr::nest() which will allow us to have what is called a list column. We can then use purrr::map() to map functions over each element of the list column.

power_sims <-
  power_sims |>
  group_by(n, sims) |>
  nest()

power_sims

# A tibble: 1,800 × 3
# Groups:   n, sims [1,800]
       n  sims data            
   <int> <int> <list>          
 1     3     1 <tibble [3 × 2]>
 2     3     2 <tibble [3 × 2]>
 3     3     3 <tibble [3 × 2]>
 4     3     4 <tibble [3 × 2]>
 5     3     5 <tibble [3 × 2]>
 6     3     6 <tibble [3 × 2]>
 7     3     7 <tibble [3 × 2]>
 8     3     8 <tibble [3 × 2]>
 9     3     9 <tibble [3 × 2]>
10     3    10 <tibble [3 × 2]>
# ℹ 1,790 more rows
…
It’s a data frame we can work on!

OK, now we can iterate over the data and fit models!

power_sims <- power_sims |>
  mutate(models = map(data, ~lm(y ~ x, data = .x)))

power_sims

# A tibble: 1,800 × 4
# Groups:   n, sims [1,800]
       n  sims data             models
   <int> <int> <list>           <list>
 1     3     1 <tibble [3 × 2]> <lm>  
 2     3     2 <tibble [3 × 2]> <lm>  
 3     3     3 <tibble [3 × 2]> <lm>  
 4     3     4 <tibble [3 × 2]> <lm>  
 5     3     5 <tibble [3 × 2]> <lm>  
 6     3     6 <tibble [3 × 2]> <lm>  
 7     3     7 <tibble [3 × 2]> <lm>  
 8     3     8 <tibble [3 × 2]> <lm>  
 9     3     9 <tibble [3 × 2]> <lm>  
10     3    10 <tibble [3 × 2]> <lm>  
# ℹ 1,790 more rows
…
