Sampling distributions, dplyr, and simulation
…
# some parameters
n <- 10
m <- 10
s <- 5

mean_sims <- tibble(sims = 1:1000) |>
  group_by(sims) |>
  mutate(sample_mean = rnorm(n, mean = m, sd = s) |> 
           mean()) |>
  ungroup()

mean_sims

# A tibble: 1,000 × 2
    sims sample_mean
   <int>       <dbl>
 1     1        9.73
 2     2       10.1 
 3     3       13.8 
 4     4        9.40
 5     5       11.8 
 6     6        8.01
 7     7       14.2 
 8     8        9.97
 9     9        8.20
10    10       12.2 
# ℹ 990 more rows
…
tibble(sims = 1:5) |>
  group_by(sims) |>
  summarize(sample = rnorm(10))

The top example throws an error (try it) as mutate should return the same number of lines. The seccond work, but we get a deprecation error - that instead of using summarize, if we’re making data that has a new number of rows, we use reframe(). This is a great function in dplyr, as it allows us to expand our data frame if the return value from a function has multiple rows. Let’s see it in action to simulate data using the same parameters as before.

sample_sims <- tibble(sims = 1:1000) |>
  group_by(sims) |>
  reframe(sample = rnorm(n, mean = m, sd = s)) |>
  ungroup()

sample_sims

# A tibble: 10,000 × 2
    sims sample
   <int>  <dbl>
 1     1  9.09 
 2     1 15.7  
 3     1 10.1  
 4     1  6.38 
 5     1 12.8  
 6     1 12.3  
 7     1 11.7  
 8     1 11.8  
 9     1 -0.298
10     1  7.41 
# ℹ 9,990 more rows

Great! Now we have data, and we can then calculate properties from each sample!

sample_properties <- sample_sims |>
  group_by(sims) |>
  summarize(sample_mean = mean(sample),
            sample_sd = sd(sample),
            median = median(sample))

sample_properties

# A tibble: 1,000 × 4
    sims sample_mean sample_sd median
   <int>       <dbl>     <dbl>  <dbl>
 1     1        9.70      4.44  10.9 
 2     2       10.0       6.32  10.9 
 3     3        8.44      4.89   6.86
 4     4       10.1       4.04   9.79
 5     5        8.57      6.71   8.31
 6     6       12.5       6.16  13.3 
 7     7        8.79      5.19   9.19
 8     8        8.85      4.33  10.1 
 9     9        9.95      6.48  10.5 
10    10        9.38      4.67  10.0 
# ℹ 990 more rows
…
